[
	{
		"id": 1,
		"intentos": 0
	},
	{
		"id": 2,
		"intentos": 0
	},
	{
		"id": 3,
		"intentos": 0
	},
	{
		"id": 4,
		"intentos": 0
	},
	{
		"id": 5,
		"intentos": 0
	},
	{
		"id": 6,
		"intentos": 0
	},
	{
		"id": 7,
		"intentos": 0
	},
	{
		"id": 8,
		"intentos": 0
	},
	{
		"id": 9,
		"intentos": 0
	},
	{
		"id": 10,
		"intentos": 0
	}
]